CosmeticFiles/cosmetic_1
Jeep position_-0.49_1.62_-0.1_rotation_0_0_-0.08597847_0.996297_scale_1.103169_1.103169_3.251447
position_0.246_-0.099_-0.1_rotation_0_0_-0.07839963_0.996922_scale_0.2185913_0.2185915_0.642916
position_0.237_-0.1_-0.1_rotation_0_0_-0.07839963_0.996922_scale_0.217848_0.217848_0.6420784
position_0.24_-0.097_-0.1_rotation_0_0_-0.07839963_0.996922_scale_0.217848_0.217848_0.6420784
position_0.243_-0.095_-0.1_rotation_0_0_-0.07839963_0.996922_scale_0.217848_0.217848_0.6420784
position_0.24_-0.09_-0.1_rotation_0_0_-0.07839963_0.996922_scale_0.217848_0.217848_0.6420784
position_0.244_-0.099_-0.1_rotation_0_0_-0.07839963_0.996922_scale_0.217848_0.217848_0.6420784
position_0.244_-0.096_-0.1_rotation_0_0_-0.07839963_0.996922_scale_0.217848_0.217848_0.6420784
position_0.246_-0.098_-0.1_rotation_0_0_-0.07839963_0.996922_scale_0.217848_0.217848_0.6420784
position_-0.125_0.293_-0.1_rotation_0_0_-0.07839963_0.996922_scale_0.217848_0.217848_0.6420784
position_-0.126_0.293_-0.1_rotation_0_0_-0.07839963_0.996922_scale_0.217848_0.217848_0.6420784
position_-0.125_0.287_-0.1_rotation_0_0_-0.07839963_0.996922_scale_0.217848_0.217848_0.6420784
position_-0.123_0.294_-0.1_rotation_0_0_-0.07839963_0.996922_scale_0.217848_0.217848_0.6420784
position_-0.073_0.282_-0.1_rotation_0_0_-0.07839963_0.996922_scale_0.217848_0.217848_0.6420784
position_-0.089_0.2_-0.1_rotation_0_0_-0.07839963_0.996922_scale_0.217848_0.217848_0.6420784
position_-0.062_0.151_-0.1_rotation_0_0_-0.07839963_0.996922_scale_0.217848_0.217848_0.6420784
position_-0.074_0.103_-0.1_rotation_0_0_-0.07839963_0.996922_scale_0.217848_0.217848_0.6420784
position_0.192_-0.049_-0.1_rotation_0_0_-0.07839963_0.996922_scale_0.217848_0.217848_0.6420784
position_0.186_0.021_-0.1_rotation_0_0_-0.07839963_0.996922_scale_0.217848_0.217848_0.6420784
position_0.014_0.161_-0.1_rotation_0_0_-0.07839963_0.996922_scale_0.217848_0.217848_0.6420784
position_-0.086_0.241_-0.1_rotation_0_0_-0.07839963_0.996922_scale_0.217848_0.217848_0.6420784
position_-0.046_0.261_-0.1_rotation_0_0_-0.07839963_0.996922_scale_0.217848_0.217848_0.6420784
position_-0.014_0.281_-0.1_rotation_0_0_-0.07839963_0.996922_scale_0.217848_0.217848_0.6420784
position_-0.015_0.312_-0.1_rotation_0_0_-0.07839963_0.996922_scale_0.217848_0.217848_0.6420784
position_-0.063_0.298_-0.1_rotation_0_0_-0.07839963_0.996922_scale_0.217848_0.217848_0.6420784
position_-0.07_0.063_-0.1_rotation_0_0_-0.006377146_0.9999797_scale_0.217848_0.217848_0.6420784
position_-0.057_0.06_-0.1_rotation_0_0_-0.01922405_0.9998152_scale_0.217848_0.217848_0.6420784
position_0.115_0.342_-0.1_rotation_0_0_-0.07839963_0.996922_scale_0.217848_0.217848_0.6420784
position_0.125_0.343_-0.1_rotation_0_0_-0.07839963_0.996922_scale_0.217848_0.217848_0.6420784
position_0.121_0.339_-0.1_rotation_0_0_-0.07839963_0.996922_scale_0.217848_0.217848_0.6420784
position_0.121_0.344_-0.1_rotation_0_0_-0.07839963_0.996922_scale_0.217848_0.217848_0.6420784
position_-0.041_0.359_-0.1_rotation_0_0_-0.07839963_0.996922_scale_0.217848_0.217848_0.6420784
position_-0.094_0.379_-0.1_rotation_0_0_-0.07839963_0.996922_scale_0.217848_0.217848_0.6420784
position_-0.127_0.292_-0.1_rotation_0_0_-0.07839963_0.996922_scale_0.217848_0.217848_0.6420784
position_-0.13_0.295_-0.1_rotation_0_0_-0.07839963_0.996922_scale_0.217848_0.217848_0.6420784
position_-0.126_0.299_-0.1_rotation_0_0_-0.04398882_0.9990321_scale_0.217848_0.217848_0.6420784
position_-0.132_0.29_-0.1_rotation_0_0_-0.07839963_0.996922_scale_0.217848_0.217848_0.6420784
position_-0.128_0.296_-0.1_rotation_0_0_-0.07839963_0.996922_scale_0.217848_0.217848_0.6420784
position_-0.128_0.292_-0.1_rotation_0_0_-0.07839963_0.996922_scale_0.217848_0.217848_0.6420784
position_-0.123_0.366_-0.1_rotation_0_0_-0.07839963_0.996922_scale_0.217848_0.217848_0.6420784
position_0.191_-0.113_-0.1_rotation_0_0_-0.07839963_0.996922_scale_0.217848_0.217848_0.6420784
position_0.083_0.209_-0.1_rotation_0_0_-0.07839963_0.996922_scale_0.217848_0.217848_0.6420784
position_0.081_0.211_-0.1_rotation_0_0_-0.07839963_0.996922_scale_0.217848_0.217848_0.6420784
position_0.077_0.211_-0.1_rotation_0_0_-0.07839963_0.996922_scale_0.217848_0.217848_0.6420784
position_0.13_0.217_-0.1_rotation_0_0_-0.07839963_0.996922_scale_0.217848_0.217848_0.6420784
position_-0.314_0.088_-0.1_rotation_0_0_0.2595533_0.9657288_scale_0.217848_0.217848_0.6420784
position_-0.34_0.165_-0.1_rotation_0_0_0.2811561_0.9596621_scale_0.217848_0.217848_0.6420784
position_-0.343_0.233_-0.1_rotation_0_0_0.2797266_0.9600797_scale_0.217848_0.217848_0.6420784
position_0.1_0.46_-0.1_rotation_0_0_-0.0999907_0.9949884_scale_0.217848_0.217848_0.6420784
position_0.16_-0.01_-0.1_rotation_0_0_-0.07839963_0.996922_scale_0.217848_0.217848_0.6420784
position_0.235_-0.019_-0.1_rotation_0_0_-0.07839963_0.996922_scale_0.217848_0.217848_0.6420784
position_0.297_0.045_-0.1_rotation_0_0_-0.07839963_0.996922_scale_0.217848_0.217848_0.6420784
position_0.29_0.061_-0.1_rotation_0_0_-0.07839963_0.996922_scale_0.217848_0.217848_0.6420784
position_0.191_-0.113_-0.1_rotation_0_0_-0.07839963_0.996922_scale_0.217848_0.217848_0.6420784
position_-0.163_0.087_-0.1_rotation_0_0_-0.07839963_0.996922_scale_0.217848_0.217848_0.6420784
position_-0.066_0.296_-0.1_rotation_0_0_-0.07839963_0.996922_scale_0.217848_0.217848_0.6420784
position_0.009_0.395_-0.1_rotation_0_0_-0.07839963_0.996922_scale_0.217848_0.217848_0.6420784
position_0_0.364_-0.1_rotation_0_0_-0.07839963_0.996922_scale_0.217848_0.217848_0.6420784
position_0.024_0.375_-0.1_rotation_0_0_-0.07839963_0.996922_scale_0.217848_0.217848_0.6420784
position_0.021_0.367_-0.1_rotation_0_0_-0.07839963_0.996922_scale_0.217848_0.217848_0.6420784
position_-0.086_0.281_-0.1_rotation_0_0_-0.07839963_0.996922_scale_0.217848_0.217848_0.6420784
position_0.33_0.271_-0.1_rotation_0_0_-0.1443136_0.989532_scale_0.217848_0.217848_0.6420784
position_0.358_0.265_-0.1_rotation_0_0_-0.1468286_0.989162_scale_0.217848_0.217848_0.6420784
position_0.333_0.238_-0.1_rotation_0_0_-0.1620257_0.9867865_scale_0.217848_0.217848_0.6420784
position_-0.092_0.355_-0.1_rotation_0_0_-0.1071506_0.9942428_scale_0.217848_0.217848_0.6420784
