%YAML 1.1
%TAG !u! tag:unity3d.com,2011:
--- !u!1 &133660
GameObject:
  m_ObjectHideFlags: 0
  m_PrefabParentObject: {fileID: 0}
  m_PrefabInternal: {fileID: 100100000}
  serializedVersion: 4
  m_Component:
  - 4: {fileID: 408874}
  - 114: {fileID: 11447824}
  m_Layer: 0
  m_Name: LevelGenerator
  m_TagString: Untagged
  m_Icon: {fileID: 7250588514170254948, guid: 0000000000000000d000000000000000, type: 0}
  m_NavMeshLayer: 0
  m_StaticEditorFlags: 0
  m_IsActive: 1
--- !u!4 &408874
Transform:
  m_ObjectHideFlags: 1
  m_PrefabParentObject: {fileID: 0}
  m_PrefabInternal: {fileID: 100100000}
  m_GameObject: {fileID: 133660}
  m_LocalRotation: {x: 0, y: 0, z: 0, w: 1}
  m_LocalPosition: {x: -66.9, y: 35.5, z: 1}
  m_LocalScale: {x: 1, y: 1, z: 1}
  m_LocalEulerAnglesHint: {x: 0, y: 0, z: 0}
  m_Children: []
  m_Father: {fileID: 0}
  m_RootOrder: 0
--- !u!114 &11447824
MonoBehaviour:
  m_ObjectHideFlags: 1
  m_PrefabParentObject: {fileID: 0}
  m_PrefabInternal: {fileID: 100100000}
  m_GameObject: {fileID: 133660}
  m_Enabled: 1
  m_EditorHideFlags: 0
  m_Script: {fileID: 11500000, guid: 4fdab59f05d564754846c36b86cce9d9, type: 3}
  m_Name: 
  m_EditorClassIdentifier: 
  powerupManager: {fileID: 0}
  playerControl: {fileID: 0}
  goalManagerUI: {fileID: 0}
  gameUI: {fileID: 0}
  coinBar: {fileID: 0}
  isUsingSeed: 0
  seed: 5
  isUsingPiers: 0
  isUsingWoodGrind: 0
  isUsingBoats: 0
  isUsingFallingRocks: 0
  isUsingSlalom: 0
  isUsingFunboxs: 0
  isOnlyUsingSlalom: 0
  curDifficulty: 1
  levelLinker: {fileID: 0}
  indoorTransitionChunks:
  - {fileID: 0}
  - {fileID: 0}
  - {fileID: 0}
  shipwreckExitChunk: {fileID: 0}
  curLocation: 0
  loadedAssets: 0
  loadProgress: 0
  letterCollectStates: 
  letterCollectCount: 0
  sharkMaster: {fileID: 0}
  levelMastersSize: 4
  letterMasters:
  - {fileID: 0}
  - {fileID: 0}
  - {fileID: 0}
  - {fileID: 0}
  distancetextPopup: {fileID: 0}
  timesSuperRewardCollected: 0
  letterActivePositions: []
  multiplierText: {fileID: 0}
  multiplierParticles: {fileID: 0}
  activeDistancePosition: {x: 0, y: 0, z: 0}
  lastChunkFinishX: 20
  standardYScale: 4
  sectionYPos: 1.1
  chunksSinceSpecial: 2
  maxChunksBetweenSpecial: 4
  chunksSinceSwitchLocation: 0
  isIndoorSection: 0
  aboutToTransition: 0
  transitionObject: {fileID: 0}
  rewardChunksSpawned: 0
  rewardChunkDistance: 400
  generateNewTerrainXTriggerDistance: 10
  lastChopperXPos: -999
  lastPowerupXPos: -3.4028235e+38
  lastSharkXPos: -3.4028235e+38
  minDistanceBetweenChoppers: 100
  minDistanceBetweenPowerups: 100
  minDistanceBetweenSharks: 200
  levelCurrentlyLoaded: 0
  playerPosition: {x: 0, y: 0, z: 0}
  timeToTransition: 0
  rockMaterials:
  - {fileID: 2100000, guid: f6d640808a542bc468a76ed3c732aee5, type: 2}
  - {fileID: 2100000, guid: f7a37790bccdc4974b81209100b51dfd, type: 2}
  - {fileID: 2100000, guid: f37c38777fa3e41c9af4d9168bf1930c, type: 2}
  - {fileID: 2100000, guid: f6d640808a542bc468a76ed3c732aee5, type: 2}
  birdObjects:
  - {fileID: 177740, guid: c3cfcf8ea0f614961a36e2031fe5b29f, type: 2}
  - {fileID: 122136, guid: c3a11d97f5f014cb9a483fe23c4e3f87, type: 2}
  - {fileID: 152862, guid: 613b0221fe0a24acc98e61b88db44a4e, type: 2}
  - {fileID: 168412, guid: 32d5cc9217e3a48bba87a9425461d834, type: 2}
  maxBirdObjects: 6
  birdIndexs: 
  isImmediateTransition: 0
  slalomBouyMaterial: {fileID: 2100000, guid: 46d45ebd0339042918499899fedd4fe2, type: 2}
  slalomTikiMaterial: {fileID: 2100000, guid: d936349a7fbc14b468754d9fbadd04a1, type: 2}
  caveFallingRockMaterial: {fileID: 2100000, guid: 7055c507e859d46828c0c53235ae5744,
    type: 2}
  volcanoFallingRockMaterial: {fileID: 2100000, guid: e95f14c4cd96a40049f06bdbab537574,
    type: 2}
  caveFallingRockCropMaterial: {fileID: 2100000, guid: fd0c0d6f120c24476892dc87f97dd822,
    type: 2}
  volcanoFallingRockCropMaterial: {fileID: 2100000, guid: 1beeafb0177094f8c97deca296c9b65b,
    type: 2}
  caveFallingRockShadowMaterial: {fileID: 2100000, guid: 74d0c048a21fd4af1a5f32fbf6eea51a,
    type: 2}
  volcanoFallingRockShadowMaterial: {fileID: 2100000, guid: 94093dc641c334a709b839fb3c8b6de3,
    type: 2}
--- !u!1001 &100100000
Prefab:
  m_ObjectHideFlags: 1
  serializedVersion: 2
  m_Modification:
    m_TransformParent: {fileID: 0}
    m_Modifications: []
    m_RemovedComponents: []
  m_ParentPrefab: {fileID: 0}
  m_RootGameObject: {fileID: 133660}
  m_IsPrefabParent: 1
